module github.com/axyut/playgo

go 1.21.5

require (
	github.com/ebitengine/oto/v3 v3.1.0
	github.com/hajimehoshi/go-mp3 v0.3.4
	github.com/mattn/go-tty v0.0.5
	golang.org/x/term v0.15.0
)

require (
	github.com/ebitengine/purego v0.5.0 // indirect
	github.com/mattn/go-isatty v0.0.10 // indirect
	golang.org/x/sys v0.15.0 // indirect
)
